<svg width="8" height="14" viewBox="0 0 8 14" fill="none" xmlns="http://www.w3.org/2000/svg">
<path fill-rule="evenodd" clip-rule="evenodd" d="M7.74146 0.26169C8.05502 0.579051 8.08327 1.07531 7.82672 1.42527L7.82117 1.43284L7.748 1.51863L2.48089 6.84991L7.74146 12.1746C8.05501 12.4919 8.08327 12.9882 7.82672 13.3382L7.82117 13.3457L7.74799 13.4315L7.74146 13.4381C7.4279 13.7555 6.9376 13.7841 6.59183 13.5244L6.58435 13.5188L6.49959 13.4447L0.607999 7.48169C0.294442 7.16432 0.266187 6.66807 0.522741 6.31811L0.52829 6.31054L0.601465 6.22475L6.49305 0.26169C6.83779 -0.0872301 7.39672 -0.0872301 7.74146 0.26169Z" fill="#9199A7"/>
</svg>
