<svg width="25" height="24" viewBox="0 0 25 24" fill="none" xmlns="http://www.w3.org/2000/svg">
<path d="M8.6001 2V5" stroke="#6C6F7B" stroke-width="1.5" stroke-miterlimit="10" stroke-linecap="round" stroke-linejoin="round"/>
<path d="M16.6001 2V5" stroke="#6C6F7B" stroke-width="1.5" stroke-miterlimit="10" stroke-linecap="round" stroke-linejoin="round"/>
<path d="M4.1001 9.09H21.1001" stroke="#6C6F7B" stroke-width="1.5" stroke-miterlimit="10" stroke-linecap="round" stroke-linejoin="round"/>
<path d="M21.6001 8.5V17C21.6001 20 20.1001 22 16.6001 22H8.6001C5.1001 22 3.6001 20 3.6001 17V8.5C3.6001 5.5 5.1001 3.5 8.6001 3.5H16.6001C20.1001 3.5 21.6001 5.5 21.6001 8.5Z" stroke="#6C6F7B" stroke-width="1.5" stroke-miterlimit="10" stroke-linecap="round" stroke-linejoin="round"/>
<path d="M16.2948 13.7H16.3038" stroke="#6C6F7B" stroke-width="2" stroke-linecap="round" stroke-linejoin="round"/>
<path d="M16.2948 16.7H16.3038" stroke="#6C6F7B" stroke-width="2" stroke-linecap="round" stroke-linejoin="round"/>
<path d="M12.5956 13.7H12.6046" stroke="#6C6F7B" stroke-width="2" stroke-linecap="round" stroke-linejoin="round"/>
<path d="M12.5956 16.7H12.6046" stroke="#6C6F7B" stroke-width="2" stroke-linecap="round" stroke-linejoin="round"/>
<path d="M8.89441 13.7H8.90339" stroke="#6C6F7B" stroke-width="2" stroke-linecap="round" stroke-linejoin="round"/>
<path d="M8.89441 16.7H8.90339" stroke="#6C6F7B" stroke-width="2" stroke-linecap="round" stroke-linejoin="round"/>
</svg>
