<svg width="359" height="413" viewBox="0 0 359 413" fill="none" xmlns="http://www.w3.org/2000/svg">
<path opacity="0.24" d="M2.66576 104.405L179.5 2.3094L356.334 104.405V308.595L179.5 410.691L2.66576 308.595V104.405Z" stroke="#2B59FF" stroke-width="4"/>
</svg>
