<svg width="98" height="98" viewBox="0 0 98 98" fill="none" xmlns="http://www.w3.org/2000/svg">
<g clip-path="url(#clip0_1903_37211)">
<path d="M4 49C4 24.1895 24.1895 4 49 4C73.8105 4 94 24.1895 94 49C94 73.8105 73.8105 94 49 94C24.1895 94 4 73.8105 4 49Z" fill="#F38F41" stroke="#FCEBDB" stroke-width="8"/>
<path fill-rule="evenodd" clip-rule="evenodd" d="M38.5375 66C38.2297 66 37.9752 65.7531 37.9752 65.4441V58.8189H33.3062C32.0344 58.8189 31 57.7966 31 56.5399V34.2792C31 33.0225 32.0344 32 33.3062 32H64.6938C65.9656 32 67 33.0223 67 34.2792V56.5399C67 57.7966 65.9656 58.8189 64.6938 58.8189H46.7471L38.916 65.8555C38.8101 65.9502 38.6744 66 38.5375 66ZM49.0001 54.109C47.7005 54.109 46.6431 53.064 46.6431 51.7793C46.6431 50.4947 47.7005 49.4499 49.0001 49.4499C50.2999 49.4499 51.3573 50.4945 51.3573 51.7793C51.3573 53.0642 50.3001 54.109 49.0001 54.109ZM49.0001 48.1588C47.7385 48.1588 46.7094 47.1592 46.606 45.8337L45.9887 37.9188C45.9372 37.2591 46.5064 36.7098 47.1674 36.7098H50.8339C51.494 36.7098 52.0637 37.2593 52.0122 37.9188L51.3949 45.8332C51.2909 47.1592 50.2617 48.1588 49.0001 48.1588Z" fill="white"/>
</g>
<defs>
<clipPath id="clip0_1903_37211">
<rect width="98" height="98" fill="white"/>
</clipPath>
</defs>
</svg>
